<?xml version="1.0" encoding="iso-8859-1"?>
<svg xmlns="http://www.w3.org/2000/svg" xmlns:xlink="http://www.w3.org/1999/xlink" version="1.1" viewBox="0 0 44 44" enable-background="new 0 0 44 44" width="512px" height="512px">
  <g>
    <g>
      <path d="m35,8h-7v-3c0-2.761-2.239-5-5-5h-2c-2.761,0-5,2.239-5,5v3h-7l-5,36h36l-5-36zm-17-3c0-1.657 1.343-3 3-3h2c1.657,0 3,1.343 3,3v3h-8v-3zm-7,5h5v4h2v-4h8v4h2v-4h5l5,32h-32l5-32z" fill="#FFFFFF"/>
    </g>
  </g>
</svg>
